<?xml version="1.0" encoding="UTF-8"?>
<svg width="100px" height="100px" viewBox="0 0 100 100" version="1.1" xmlns="http://www.w3.org/2000/svg" xmlns:xlink="http://www.w3.org/1999/xlink">
    <!-- Generator: Sketch 55.2 (78181) - https://sketchapp.com -->
    <title>Artboard</title>
    <desc>Created with Sketch.</desc>
    <g id="Artboard" stroke="none" stroke-width="1" fill="none" fill-rule="evenodd">
        <rect fill="#000000" x="0" y="0" width="100" height="100"></rect>
        <circle id="Oval" stroke="#FFFFFF" cx="50" cy="50" r="49.5"></circle>
        <rect id="Rectangle" fill="#FFFFFF" x="25" y="33" width="50" height="2"></rect>
        <rect id="Rectangle-Copy" fill="#FFFFFF" x="25" y="49" width="50" height="2"></rect>
        <rect id="Rectangle-Copy-2" fill="#FFFFFF" x="25" y="66" width="50" height="2"></rect>
    </g>
</svg>